<?xml version="1.0" encoding="utf-8"?>
<!-- Generator: Adobe Illustrator 19.2.0, SVG Export Plug-In . SVG Version: 6.00 Build 0)  -->
<svg version="1.1" id="Layer_1" xmlns="http://www.w3.org/2000/svg" xmlns:xlink="http://www.w3.org/1999/xlink" x="0px" y="0px"
	 viewBox="0 0 76 36" style="enable-background:new 0 0 76 36;" xml:space="preserve">
<style type="text/css">
	.st0{fill:none;stroke:url(#SVGID_1_);}
</style>
<linearGradient id="SVGID_1_" gradientUnits="userSpaceOnUse" x1="-456.0267" y1="505.01" x2="-454.6655" y2="503.6761" gradientTransform="matrix(75 0 0 -35 34179.6016 17673.9316)">
	<stop  offset="0" style="stop-color:#F76E11"/>
	<stop  offset="0.4544" style="stop-color:#FF2C1A"/>
	<stop  offset="1" style="stop-color:#7700F5"/>
</linearGradient>
<path class="st0" d="M0.5,0.5H58c9.7,0,17.5,7.8,17.5,17.5S67.7,35.5,58,35.5H0.5C0.5,35.5,0.5,0.5,0.5,0.5z"/>
</svg>
