<svg xmlns="http://www.w3.org/2000/svg" width="20" height="21" viewBox="0 0 20 21">
    <path fill="#FFF" fill-rule="evenodd" d="M18.127.77H1.317C.59.77 0 1.36 0 2.089v16.81c0 .727.59 1.317 1.317 1.317h8.014v-8.182h-2.12V8.871h2.12V7.26h.006c.057-1.838.695-3.587 3.807-3.697V3.55h2.57v3.228h-2.186c-.588 0-1.001.498-1.001 1.12v.973h3.12l-.504 3.162h-2.618v8.182h5.602c.728 0 1.317-.59 1.317-1.317V2.088c0-.727-.59-1.317-1.317-1.317"/>
</svg>
