<svg xmlns="http://www.w3.org/2000/svg" width="22" height="17" viewBox="0 0 22 17">
    <path fill="#FFF" fill-rule="evenodd" d="M21.318 2.131a8.41 8.41 0 0 1-2.417.665 4.24 4.24 0 0 0 1.853-2.33 8.388 8.388 0 0 1-2.68 1.02 4.21 4.21 0 0 0-7.275 2.88c0 .333.038.652.107.96A11.95 11.95 0 0 1 2.228.929a4.177 4.177 0 0 0-.57 2.117c0 1.459.745 2.75 1.872 3.5a4.145 4.145 0 0 1-1.903-.526v.051a4.22 4.22 0 0 0 3.374 4.132 4.343 4.343 0 0 1-1.902.07 4.223 4.223 0 0 0 3.931 2.923 8.46 8.46 0 0 1-5.228 1.797c-.338 0-.67-.02-1.002-.057a11.912 11.912 0 0 0 6.455 1.89c7.738 0 11.972-6.411 11.972-11.97l-.013-.545a8.478 8.478 0 0 0 2.104-2.18"/>
</svg>
